{
  "project_info": {
    "project_number": "74020351206",
    "firebase_url": "https://ellasdeliveryservice-bb640.firebaseio.com",
    "project_id": "ellasdeliveryservice-bb640",
    "storage_bucket": "ellasdeliveryservice-bb640.appspot.com"
  },
  "client": [
    {
      "client_info": {
        "mobilesdk_app_id": "1:74020351206:android:bb15ee06de347c2a",
        "android_client_info": {
          "package_name": "com.ellas.ellasdeliveryservice"
        }
      },
      "oauth_client": [
        {
          "client_id": "74020351206-ethpvohi4e8hda7416ebg6eud4gho6cu.apps.googleusercontent.com",
          "client_type": 1,
          "android_info": {
            "package_name": "com.ellas.ellasdeliveryservice",
            "certificate_hash": "8183ca338fbb4f160bb2a5f4a599a44626759341"
          }
        },
        {
          "client_id": "74020351206-1b1sbt3ofqaljld4mh0vd5skk2visfet.apps.googleusercontent.com",
          "client_type": 3
        }
      ],
      "api_key": [
        {
          "current_key": "AIzaSyApKw7noFzl_Z6D1adF0xWFhR0-BTzlyjc"
        }
      ],
      "services": {
        "appinvite_service": {
          "other_platform_oauth_client": [
            {
              "client_id": "74020351206-1b1sbt3ofqaljld4mh0vd5skk2visfet.apps.googleusercontent.com",
              "client_type": 3
            }
          ]
        }
      }
    }
  ],
  "configuration_version": "1"
}